Processing and visualizing data in the tidyverse
…
- There are no row.names() for a tibble

- Tibbles print first ten rows and columns that fit on one screen
]

.panel[.panel-name[Examples]

```r
library(palmerpenguins)
penguins
```

```
## # A tibble: 344 x 8
##    species island bill_length_mm bill_depth_mm flipper_length_… body_mass_g
##    <fct>   <fct>           <dbl>         <dbl>            <int>       <int>
##  1 Adelie  Torge…           39.1          18.7              181        3750
##  2 Adelie  Torge…           39.5          17.4              186        3800
##  3 Adelie  Torge…           40.3          18                195        3250
##  4 Adelie  Torge…           NA            NA                 NA          NA
##  5 Adelie  Torge…           36.7          19.3              193        3450
##  6 Adelie  Torge…           39.3          20.6              190        3650
##  7 Adelie  Torge…           38.9          17.8              181        3625
##  8 Adelie  Torge…           39.2          19.6              195        4675
##  9 Adelie  Torge…           34.1          18.1              193        3475
## 10 Adelie  Torge…           42            20.2              190        4250
## # … with 334 more rows, and 2 more variables: sex <fct>, year <int>
```
…
.panel[.panel-name[Convert to tibble]

```r
as_tibble(trees)
```

```
## # A tibble: 31 x 3
##    Girth Height Volume
##    <dbl>  <dbl>  <dbl>
##  1   8.3     70   10.3
##  2   8.6     65   10.3
##  3   8.8     63   10.2
##  4  10.5     72   16.4
##  5  10.7     81   18.8
##  6  10.8     83   19.7
##  7  11       66   15.6
##  8  11       75   18.2
##  9  11.1     80   22.6
## 10  11.2     75   19.9
## # … with 21 more rows
```
…
.panelset[
.panel[.panel-name[Wide and long data]
<img src="https://thinkr.fr/wp-content/uploads/long_wide.png" style="display: block; margin: auto;" />
]

.panel[.panel-name[Raw data]

```r
airquality <- as_tibble(airquality)
airquality
```

```
## # A tibble: 153 x 6
##    Ozone Solar.R  Wind  Temp Month   Day
##    <int>   <int> <dbl> <int> <int> <int>
##  1    41     190   7.4    67     5     1
##  2    36     118   8      72     5     2
##  3    12     149  12.6    74     5     3
##  4    18     313  11.5    62     5     4
##  5    NA      NA  14.3    56     5     5
##  6    28      NA  14.9    66     5     6
##  7    23     299   8.6    65     5     7
##  8    19      99  13.8    59     5     8
##  9     8      19  20.1    61     5     9
## 10    NA     194   8.6    69     5    10
## # … with 143 more rows
```
…
]

]

.panel[.panel-name[select()]

```r
penguins %>%
  filter(species == "Adelie") %>%
  select(bill_length_mm, bill_depth_mm)
```

```
## # A tibble: 152 x 2
##    bill_length_mm bill_depth_mm
##             <dbl>         <dbl>
##  1           39.1          18.7
##  2           39.5          17.4
##  3           40.3          18  
##  4           NA            NA  
##  5           36.7          19.3
##  6           39.3          20.6
##  7           38.9          17.8
##  8           39.2          19.6
##  9           34.1          18.1
## 10           42            20.2
## # … with 142 more rows
```
…
.panel[.panel-name[mutate()]

```r
penguins %>%
  select(species, island, bill_length_mm, bill_depth_mm) %>%
  mutate(length_times_depth = bill_length_mm * bill_depth_mm)
```

```
## # A tibble: 344 x 5
##    species island    bill_length_mm bill_depth_mm length_times_depth
##    <fct>   <fct>              <dbl>         <dbl>              <dbl>
##  1 Adelie  Torgersen           39.1          18.7               731.
##  2 Adelie  Torgersen           39.5          17.4               687.
##  3 Adelie  Torgersen           40.3          18                 725.
##  4 Adelie  Torgersen           NA            NA                  NA 
##  5 Adelie  Torgersen           36.7          19.3               708.
##  6 Adelie  Torgersen           39.3          20.6               810.
##  7 Adelie  Torgersen           38.9          17.8               692.
##  8 Adelie  Torgersen           39.2          19.6               768.
##  9 Adelie  Torgersen           34.1          18.1               617.
## 10 Adelie  Torgersen           42            20.2               848.
## # … with 334 more rows
```
…
- From which island are the top 3 Adelie penguins with the smallest bill?
]

---

## Solution - Exercise #1

```r
penguins %>%
  filter(sex == "female", species == "Adelie") %>%
  arrange(bill_length_mm)
```

```
## # A tibble: 73 x 8
##    species island bill_length_mm bill_depth_mm flipper_length_… body_mass_g
##    <fct>   <fct>           <dbl>         <dbl>            <int>       <int>
##  1 Adelie  Dream            32.1          15.5              188        3050
##  2 Adelie  Dream            33.1          16.1              178        2900
##  3 Adelie  Torge…           33.5          19                190        3600
##  4 Adelie  Dream            34            17.1              185        3400
##  5 Adelie  Torge…           34.4          18.4              184        3325
##  6 Adelie  Biscoe           34.5          18.1              187        2900
##  7 Adelie  Torge…           34.6          17.2              189        3200
##  8 Adelie  Biscoe           35            17.9              190        3450
##  9 Adelie  Biscoe           35            17.9              192        3725
## 10 Adelie  Torge…           35.2          15.9              186        3050
## # … with 63 more rows, and 2 more variables: sex <fct>, year <int>
```
…
---

## Solution - Exercise #2

```r
penguins %>%
  filter(year != 2007) %>%
  select(species, sex, body_mass_g) %>%
  mutate(body_mass_kg = body_mass_g / 1000) %>%
  arrange(-body_mass_kg)
```

```
## # A tibble: 234 x 4
##    species sex   body_mass_g body_mass_kg
##    <fct>   <fct>       <int>        <dbl>
##  1 Gentoo  male         6000         6   
##  2 Gentoo  male         6000         6   
##  3 Gentoo  male         5950         5.95
##  4 Gentoo  male         5950         5.95
##  5 Gentoo  male         5850         5.85
##  6 Gentoo  male         5800         5.8 
##  7 Gentoo  male         5800         5.8 
##  8 Gentoo  male         5750         5.75
##  9 Gentoo  male         5700         5.7 
## 10 Gentoo  male         5700         5.7 
## # … with 224 more rows
```
…
.panel[.panel-name[count()]
.pull-left[

```r
msleep %>%
  count(vore, order)
```
]

.pull-right[

```
## # A tibble: 32 x 3
##    vore  order               n
##    <chr> <chr>           <int>
##  1 carni Carnivora          12
##  2 carni Cetacea             3
##  3 carni Cingulata           1
##  4 carni Didelphimorphia     1
##  5 carni Primates            1
##  6 carni Rodentia            1
##  7 herbi Artiodactyla        5
##  8 herbi Diprotodontia       1
##  9 herbi Hyracoidea          2
## 10 herbi Lagomorpha          1
## # … with 22 more rows
```
…
.panel[.panel-name[Example 2]

.pull-left[

```r
airquality %>%
  filter(across(Ozone:Temp, ~ !is.na(.)))
```
]
.pull-right[

```
## # A tibble: 111 x 6
##    Ozone Solar.R  Wind  Temp Month   Day
##    <int>   <int> <dbl> <int> <int> <int>
##  1    41     190   7.4    67     5     1
##  2    36     118   8      72     5     2
##  3    12     149  12.6    74     5     3
##  4    18     313  11.5    62     5     4
##  5    23     299   8.6    65     5     7
##  6    19      99  13.8    59     5     8
##  7     8      19  20.1    61     5     9
##  8    16     256   9.7    69     5    12
##  9    11     290   9.2    66     5    13
## 10    14     274  10.9    68     5    14
## # … with 101 more rows
```
…
.panel[.panel-name[Example 3]

.pull-left[

```r
airquality %>%
  mutate(across(Ozone:Temp, ~ replace_na(., 0)))
```
]
.pull-right[

```
## # A tibble: 153 x 6
##    Ozone Solar.R  Wind  Temp Month   Day
##    <dbl>   <dbl> <dbl> <dbl> <int> <int>
##  1    41     190   7.4    67     5     1
##  2    36     118   8      72     5     2
##  3    12     149  12.6    74     5     3
##  4    18     313  11.5    62     5     4
##  5     0       0  14.3    56     5     5
##  6    28       0  14.9    66     5     6
##  7    23     299   8.6    65     5     7
##  8    19      99  13.8    59     5     8
##  9     8      19  20.1    61     5     9
## 10     0     194   8.6    69     5    10
## # … with 143 more rows
```
…
.panelset[

.panel[.panel-name[str_c()] .pull-left[

```r
msleep %>%
  mutate(name_genus = str_c(name, genus, "_")) %>%
  select(name_genus)
```
]
.pull-right[

```
## # A tibble: 83 x 1
##    name_genus                        
##    <chr>                             
##  1 CheetahAcinonyx_                  
##  2 Owl monkeyAotus_                  
##  3 Mountain beaverAplodontia_        
##  4 Greater short-tailed shrewBlarina_
##  5 CowBos_                           
##  6 Three-toed slothBradypus_         
##  7 Northern fur sealCallorhinus_     
##  8 Vesper mouseCalomys_              
##  9 DogCanis_                         
## 10 Roe deerCapreolus_                
## # … with 73 more rows
```
…
